Advent_of_code - Day 5
…
I have splitted the input file to get separate input for the stacks and for the instructions.

system("./Day_5_split_input.sh")
list.files(here("DATA"))

[1] "2022" "2023"

(instructions <- read_table(
  here("DATA", "2022", "input_day_05_instructions.txt"),
  show_col_types = FALSE,
  col_names = FALSE
))

# A tibble: 503 × 6
   X1       X2 X3       X4 X5       X6
   <chr> <dbl> <chr> <dbl> <chr> <dbl>
 1 move      3 from      9 to        4
 2 move      2 from      5 to        2
 3 move      8 from      1 to        9
 4 move      4 from      7 to        1
 5 move      5 from      3 to        8
 6 move      3 from      3 to        7
 7 move     11 from      8 to        3
 8 move      7 from      3 to        6
 9 move      2 from      5 to        9
10 move      3 from      1 to        6
# ℹ 493 more rows
…
