Advent_of_code - Day 1
…
my codes:

X = "rock", Y = "paper", Z = "scissors"

..but the important thing is that each of these give various points, which we can basically treat as factor-levels:

(games_in <- read_delim(
  here("DATA", "input_day_02.txt"),
  delim = " ",
  col_names = FALSE,
  skip_empty_rows = FALSE,
  show_col_types = FALSE
))

# A tibble: 2,500 × 2
   X1    X2   
   <chr> <chr>
 1 C     Y    
 2 A     Z    
 3 B     Y    
 4 A     Z    
 5 A     X    
 6 A     Z    
 7 B     Y    
 8 A     Z    
 9 B     Y    
10 C     Z    
# … with 2,490 more rows
…
      return(player1_lose)
    }
    
    if(cur_diff > 0){ # check who has higher value
      return(player1_win)
    }
    
    return(player1_lose)
  })
}

(games_fct <- games_fct %>%
  mutate(points = check_rules(as.numeric(me), as.numeric(opponent))))

# A tibble: 2,500 × 3
   opponent me    points
   <fct>    <fct>  <dbl>
 1 C        Y          0
 2 A        Z          0
 3 B        Y          3
 4 A        Z          0
 5 A        X          3
 6 A        Z          0
 7 B        Y          3
 8 A        Z          0
 9 B        Y          3
10 C        Z          3
# … with 2,490 more rows
…
