Advent_of_code - Day 3
…
Data

Each line is a list of items in one rucksack.

(rucksack_data <- read_table(
  here("DATA", "input_day_03.txt"),
  col_names = FALSE
))

── Column specification ────────────────────────────────────────────────────────
cols(
  X1 = col_character()
)

# A tibble: 300 × 1
   X1                                            
   <chr>                                         
 1 DMwrszrfMzSSCpLpfCCn                          
 2 RMvhZhQqlvhMvRtbvbcPclPlncddppLTdppd          
 3 tVMQhFtjjWmsFJsmsW                            
 4 trRtvNhfJhSzzSTFVhQQZQhHGphP                  
 5 CnLMBWLwDMgMcwwdngdHGPVTQGpTHZdGPGpd          
 6 LLDqcDgwqCMnLWqtvzrzbbtJqPjJ                  
 7 wQQwHNQLmbWQbQRHwHNFBbwqPfjqlzRMGRqzpSfvPlzplM
 8 nCtGCZZtsGsrtDMZpfMpSlMlvlZq                  
 9 cJctJCgVJsCJnDTsCthGhGLwBWBbbQmLbgQLQQdWbbbQ  
10 ZWnNlTNTnhhQQlDNdmmpwrrrqBwjwjZd              
# … with 290 more rows
…
Priority of items

Lowercase letters have priorities from 1 through 26, uppercase letters - from 27 through 52.

priority_low <- str_locate(
  paste0(letters, collapse = ""), letters
)[, "start"]
priority_low <- tibble(
  letter = letters,
  prior = priority_low
)
priority_low

# A tibble: 26 × 2
   letter prior
   <chr>  <int>
 1 a          1
 2 b          2
 3 c          3
 4 d          4
 5 e          5
 6 f          6
 7 g          7
 8 h          8
 9 i          9
10 j         10
# … with 16 more rows

priority_up <- str_locate(
  paste0(LETTERS, collapse = ""), LETTERS
)[, "start"] + 26
priority_up <- tibble(
  letter = LETTERS,
  prior = priority_up
)
priority_up

# A tibble: 26 × 2
   letter prior
   <chr>  <dbl>
 1 A         27
 2 B         28
 3 C         29
 4 D         30
 5 E         31
 6 F         32
 7 G         33
 8 H         34
 9 I         35
10 J         36
# … with 16 more rows
…
